d4-1/新建文件10.csv

X,CH1,CH2,Start,Increment,
Sequence,Volt,Volt,-1.400000e-01,2.000000e-04,
0,2.400000e-02,1.200000e-01,
1,2.800000e-02,2.800000e-01,
2,2.400000e-02,1.200000e-01,
3,2.800000e-02,2.800000e-01,
4,2.400000e-02,2.400000e-01,
5,2.800000e-02,4.400000e-01,
6,2.400000e-02,4.000000e-01,
7,2.800000e-02,5.600000e-01,
8,2.800000e-02,4.800000e-01,
9,2.200000e-02,6.800000e-01,
10,2.600000e-02,6.000000e-01,
11,2.200000e-02,7.600000e-01,
12,2.600000e-02,6.800000e-01,
13,2.200000e-02,8.400000e-01,
14,2.600000e-02,7.600000e-01,
15,2.000000e-02,9.200000e-01,
16,2.400000e-02,8.800000e-01,
17,1.400000e-02,1.000000e+00,
18,1.800000e-02,9.200000e-01,
19,-2.000000e-02,1.040000e+00,
20,-1.800000e-02,1.000000e+00,
21,-1.480000e-01,1.080000e+00,
22,-1.500000e-01,1.000000e+00,
23,-8.400001e-02,1.120000e+00,
24,-8.600000e-02,1.040000e+00,
25,-2.400000e-02,1.160000e+00,
26,-2.600000e-02,1.160000e+00,
27,6.000001e-03,1.080000e+00,
28,2.000000e-03,1.080000e+00,
29,1.600000e-02,1.200000e+00,
30,1.200000e-02,1.200000e+00,
31,2.000000e-02,1.080000e+00,
32,1.600000e-02,1.120000e+00,
33,2.200000e-02,1.200000e+00,
34,1.800000e-02,1.200000e+00,
35,2.200000e-02,1.080000e+00,
36,2.000000e-02,1.120000e+00,
37,2.400000e-02,9.600000e-01,
38,2.000000e-02,1.040000e+00,
39,2.400000e-02,8.800000e-01,
40,2.000000e-02,9.600000e-01,
41,2.400000e-02,8.400000e-01,
42,2.400000e-02,8.800000e-01,
43,2.000000e-02,7.200000e-01,
44,2.400000e-02,7.600000e-01,
45,2.000000e-02,6.400000e-01,
46,2.400000e-02,7.200000e-01,
47,2.000000e-02,5.200000e-01,
48,2.400000e-02,5.600000e-01,
49,2.000000e-02,3.600000e-01,
50,2.400000e-02,4.000000e-01,
51,2.000000e-02,2.000000e-01,
52,2.400000e-02,2.800000e-01,
53,2.000000e-02,1.200000e-01,
54,2.000000e-02,1.600000e-01,
55,2.400000e-02,-4.000000e-02,
56,2.400000e-02,4.000000e-02,
57,1.800000e-02,-1.600000e-01,
58,2.400000e-02,-8.000000e-02,
59,1.800000e-02,-2.400000e-01,
60,2.200000e-02,-2.000000e-01,
61,1.800000e-02,-3.600000e-01,
62,2.200000e-02,-2.800000e-01,
63,1.600000e-02,-4.400000e-01,
64,2.000000e-02,-4.000000e-01,
65,1.400000e-02,-5.200000e-01,
66,1.800000e-02,-4.800000e-01,
67,1.000000e-02,-6.000000e-01,
68,1.200000e-02,-5.200000e-01,
69,-4.000000e-03,-6.400000e-01,
70,-2.000000e-03,-5.600000e-01,
71,-4.400000e-02,-6.800000e-01,
72,-4.200000e-02,-6.000000e-01,
73,-1.020000e-01,-7.200000e-01,
74,-1.000000e-01,-6.400000e-01,
75,-1.440000e-01,-7.600000e-01,
76,-1.300000e-01,-6.800000e-01,
77,-2.000000e-03,-7.600000e-01,
78,-4.000000e-03,-6.800000e-01,
79,2.000000e-02,-8.000000e-01,
80,1.600000e-02,-7.600000e-01,
81,2.600000e-02,-6.800000e-01,
82,2.200000e-02,-6.800000e-01,
83,2.600000e-02,-8.000000e-01,
84,2.400000e-02,-7.600000e-01,
85,2.800000e-02,-6.400000e-01,
86,2.400000e-02,-7.200000e-01,
87,2.800000e-02,-5.600000e-01,
88,2.400000e-02,-6.000000e-01,
89,2.800000e-02,-4.800000e-01,
90,2.400000e-02,-5.600000e-01,
91,2.800000e-02,-4.000000e-01,
92,2.800000e-02,-4.800000e-01,
93,2.400000e-02,-3.200000e-01,
94,2.400000e-02,-4.000000e-01,
95,2.800000e-02,-2.400000e-01,
96,2.800000e-02,-2.800000e-01,
97,2.400000e-02,-8.000000e-02,
98,2.800000e-02,-1.600000e-01,
99,2.400000e-02,8.000000e-02,
100,2.400000e-02,0.000000e+00,
101,2.800000e-02,2.000000e-01,
102,2.400000e-02,1.200000e-01,
103,2.800000e-02,3.200000e-01,
104,2.400000e-02,2.400000e-01,
105,2.800000e-02,4.400000e-01,
106,2.400000e-02,4.000000e-01,
107,2.800000e-02,5.600000e-01,
108,2.400000e-02,4.800000e-01,
109,2.800000e-02,6.800000e-01,
110,2.600000e-02,6.000000e-01,
111,2.200000e-02,7.600000e-01,
112,2.600000e-02,6.800000e-01,
113,2.200000e-02,8.400000e-01,
114,2.600000e-02,8.000000e-01,
115,2.000000e-02,9.600000e-01,
116,2.400000e-02,8.800000e-01,
117,1.400000e-02,1.000000e+00,
118,1.800000e-02,9.200000e-01,
119,-1.800000e-02,1.040000e+00,
120,-1.800000e-02,1.000000e+00,
121,-1.480000e-01,1.080000e+00,
122,-1.500000e-01,1.000000e+00,
123,-8.600000e-02,1.120000e+00,
124,-8.800001e-02,1.040000e+00,
125,-2.600000e-02,1.160000e+00,
126,-2.800000e-02,1.080000e+00,
127,4.000000e-03,1.200000e+00,
128,2.000000e-03,1.080000e+00,
129,1.600000e-02,1.200000e+00,
130,1.200000e-02,1.080000e+00,
131,2.000000e-02,1.200000e+00,
132,1.600000e-02,1.200000e+00,
133,2.200000e-02,1.080000e+00,
134,1.800000e-02,1.200000e+00,
135,2.200000e-02,1.080000e+00,
136,2.000000e-02,1.120000e+00,
137,2.400000e-02,9.600000e-01,
138,2.000000e-02,1.000000e+00,
139,2.400000e-02,8.800000e-01,
140,2.400000e-02,9.600000e-01,
141,2.000000e-02,8.000000e-01,
142,2.400000e-02,8.800000e-01,
143,2.000000e-02,7.200000e-01,
144,2.400000e-02,7.600000e-01,
145,2.000000e-02,6.400000e-01,
146,2.400000e-02,7.200000e-01,
147,2.000000e-02,5.200000e-01,
148,2.400000e-02,5.600000e-01,
149,2.000000e-02,3.600000e-01,
150,2.400000e-02,4.000000e-01,
151,2.000000e-02,2.400000e-01,
152,2.400000e-02,2.800000e-01,
153,2.000000e-02,8.000000e-02,
154,2.000000e-02,1.600000e-01,
155,2.400000e-02,-4.000000e-02,
156,2.000000e-02,4.000000e-02,
157,2.400000e-02,-1.600000e-01,
158,2.200000e-02,-8.000000e-02,
159,1.800000e-02,-2.800000e-01,
160,2.200000e-02,-2.000000e-01,
161,1.800000e-02,-3.600000e-01,
162,2.200000e-02,-2.800000e-01,
163,1.600000e-02,-4.400000e-01,
164,2.000000e-02,-4.000000e-01,
165,1.400000e-02,-5.600000e-01,
166,1.800000e-02,-4.800000e-01,
167,1.000000e-02,-6.000000e-01,
168,1.200000e-02,-5.200000e-01,
169,-6.000001e-03,-6.400000e-01,
170,-2.000000e-03,-5.600000e-01,
171,-4.400000e-02,-6.800000e-01,
172,-4.200000e-02,-6.000000e-01,
173,-1.020000e-01,-7.200000e-01,
174,-1.000000e-01,-6.400000e-01,
175,-1.440000e-01,-7.600000e-01,
176,-1.300000e-01,-6.800000e-01,
177,-2.000000e-03,-7.600000e-01,
178,-4.000000e-03,-7.600000e-01,
179,2.000000e-02,-6.800000e-01,
180,1.800000e-02,-7.600000e-01,
181,2.400000e-02,-6.800000e-01,
182,2.200000e-02,-7.600000e-01,
183,2.600000e-02,-6.800000e-01,
184,2.400000e-02,-7.600000e-01,
185,2.800000e-02,-6.400000e-01,
186,2.400000e-02,-7.200000e-01,
187,2.800000e-02,-5.600000e-01,
188,2.400000e-02,-6.000000e-01,
189,2.800000e-02,-4.800000e-01,
190,2.800000e-02,-5.600000e-01,
191,2.400000e-02,-4.000000e-01,
192,2.800000e-02,-4.800000e-01,
193,2.400000e-02,-3.200000e-01,
194,2.800000e-02,-3.600000e-01,
195,2.400000e-02,-2.400000e-01,
196,2.800000e-02,-3.200000e-01,
197,2.400000e-02,-8.000000e-02,
198,2.400000e-02,-1.600000e-01,
199,2.800000e-02,8.000000e-02,
200,2.400000e-02,0.000000e+00,
201,2.800000e-02,2.000000e-01,
202,2.400000e-02,1.200000e-01,
203,2.800000e-02,3.200000e-01,
204,2.400000e-02,2.400000e-01,
205,2.800000e-02,4.400000e-01,
206,2.400000e-02,4.000000e-01,
207,2.800000e-02,5.600000e-01,
208,2.800000e-02,4.800000e-01,
209,2.200000e-02,6.800000e-01,
210,2.600000e-02,6.000000e-01,
211,2.200000e-02,7.600000e-01,
212,2.600000e-02,6.800000e-01,
213,2.200000e-02,8.400000e-01,
214,2.600000e-02,8.000000e-01,
215,2.000000e-02,9.600000e-01,
216,2.400000e-02,8.800000e-01,
217,1.400000e-02,1.000000e+00,
218,1.800000e-02,9.200000e-01,
219,-1.800000e-02,1.040000e+00,
220,-1.600000e-02,1.000000e+00,
221,-1.480000e-01,1.080000e+00,
222,-1.500000e-01,1.000000e+00,
223,-8.600000e-02,1.120000e+00,
224,-8.800001e-02,1.040000e+00,
225,-2.600000e-02,1.160000e+00,
226,-2.800000e-02,1.160000e+00,
227,4.000000e-03,1.080000e+00,
228,2.000000e-03,1.200000e+00,
229,1.600000e-02,1.080000e+00,
230,1.200000e-02,1.080000e+00,
231,2.000000e-02,1.200000e+00,
232,1.600000e-02,1.200000e+00,
233,2.200000e-02,1.080000e+00,
234,1.800000e-02,1.200000e+00,
235,2.200000e-02,1.080000e+00,
236,2.000000e-02,1.120000e+00,
237,2.400000e-02,9.600000e-01,
238,2.000000e-02,1.040000e+00,
239,2.400000e-02,8.800000e-01,
240,2.400000e-02,9.600000e-01,
241,2.000000e-02,8.000000e-01,
242,2.400000e-02,8.800000e-01,
243,2.000000e-02,7.200000e-01,
244,2.400000e-02,7.600000e-01,
245,2.000000e-02,6.400000e-01,
246,2.400000e-02,7.200000e-01,
247,2.000000e-02,4.800000e-01,
248,2.400000e-02,5.600000e-01,
249,2.000000e-02,3.600000e-01,
250,2.400000e-02,4.000000e-01,
251,2.000000e-02,2.400000e-01,
252,2.000000e-02,2.800000e-01,
253,2.400000e-02,1.200000e-01,
254,2.000000e-02,2.000000e-01,
255,2.400000e-02,-4.000000e-02,
256,2.000000e-02,4.000000e-02,
257,2.400000e-02,-1.600000e-01,
258,2.400000e-02,-8.000000e-02,
259,1.800000e-02,-2.400000e-01,
260,2.200000e-02,-2.000000e-01,
261,1.800000e-02,-3.600000e-01,
262,2.200000e-02,-2.800000e-01,
263,1.600000e-02,-4.400000e-01,
264,2.000000e-02,-4.000000e-01,
265,1.400000e-02,-5.600000e-01,
266,1.800000e-02,-4.800000e-01,
267,1.000000e-02,-6.000000e-01,
268,1.400000e-02,-5.200000e-01,
269,-4.000000e-03,-6.400000e-01,
270,-2.000000e-03,-5.600000e-01,
271,-4.200000e-02,-6.800000e-01,
272,-4.000000e-02,-6.000000e-01,
273,-1.000000e-01,-7.200000e-01,
274,-9.800000e-02,-6.400000e-01,
275,-1.440000e-01,-7.600000e-01,
276,-1.320000e-01,-6.800000e-01,
277,-2.000000e-03,-7.600000e-01,
278,-6.000001e-03,-7.600000e-01,
279,2.000000e-02,-6.800000e-01,
280,1.600000e-02,-6.800000e-01,
281,2.600000e-02,-8.000000e-01,
282,2.200000e-02,-8.000000e-01,
283,2.600000e-02,-6.800000e-01,
284,2.400000e-02,-7.600000e-01,
285,2.800000e-02,-6.400000e-01,
286,2.400000e-02,-7.200000e-01,
287,2.800000e-02,-5.600000e-01,
288,2.400000e-02,-6.400000e-01,
289,2.800000e-02,-4.800000e-01,
290,2.400000e-02,-5.600000e-01,
291,2.800000e-02,-4.000000e-01,
292,2.400000e-02,-4.800000e-01,
293,2.800000e-02,-3.200000e-01,
294,2.800000e-02,-4.000000e-01,
295,2.400000e-02,-2.400000e-01,
296,2.800000e-02,-3.200000e-01,
297,2.400000e-02,-8.000000e-02,
298,2.400000e-02,-1.600000e-01,
299,2.800000e-02,8.000000e-02,
300,2.400000e-02,0.000000e+00,
301,2.800000e-02,2.000000e-01,
302,2.400000e-02,1.200000e-01,
303,2.800000e-02,3.200000e-01,
304,2.400000e-02,2.400000e-01,
305,2.800000e-02,4.400000e-01,
306,2.400000e-02,4.000000e-01,
307,2.800000e-02,5.600000e-01,
308,2.400000e-02,4.800000e-01,
309,2.800000e-02,6.800000e-01,
310,2.600000e-02,6.000000e-01,
311,2.200000e-02,7.600000e-01,
312,2.200000e-02,6.800000e-01,
313,2.600000e-02,8.400000e-01,
314,2.600000e-02,7.600000e-01,
315,2.000000e-02,9.600000e-01,
316,2.400000e-02,8.800000e-01,
317,1.400000e-02,1.000000e+00,
318,1.800000e-02,9.200000e-01,
319,-1.800000e-02,1.040000e+00,
320,-1.600000e-02,9.600000e-01,
321,-1.480000e-01,1.080000e+00,
322,-1.500000e-01,1.000000e+00,
323,-8.600000e-02,1.120000e+00,
324,-8.800001e-02,1.040000e+00,
325,-2.600000e-02,1.160000e+00,
326,-2.800000e-02,1.160000e+00,
327,4.000000e-03,1.080000e+00,
328,2.000000e-03,1.160000e+00,
329,1.600000e-02,1.080000e+00,
330,1.200000e-02,1.080000e+00,
331,2.000000e-02,1.200000e+00,
332,1.600000e-02,1.200000e+00,
333,2.200000e-02,1.080000e+00,
334,1.800000e-02,1.160000e+00,
335,2.200000e-02,1.080000e+00,
336,2.000000e-02,1.120000e+00,
337,2.400000e-02,9.600000e-01,
338,2.000000e-02,1.040000e+00,
339,2.400000e-02,8.800000e-01,
340,2.400000e-02,9.600000e-01,
341,2.000000e-02,8.000000e-01,
342,2.400000e-02,8.800000e-01,
343,2.000000e-02,7.200000e-01,
344,2.400000e-02,7.600000e-01,
345,2.000000e-02,6.400000e-01,
346,2.400000e-02,7.200000e-01,
347,2.000000e-02,4.800000e-01,
348,2.400000e-02,5.600000e-01,
349,2.000000e-02,3.600000e-01,
350,2.400000e-02,4.000000e-01,
351,2.000000e-02,2.400000e-01,
352,2.400000e-02,2.800000e-01,
353,2.000000e-02,1.200000e-01,
354,2.000000e-02,2.000000e-01,
355,2.400000e-02,-4.000000e-02,
356,2.400000e-02,4.000000e-02,
357,2.000000e-02,-1.600000e-01,
358,2.200000e-02,-8.000000e-02,
359,1.800000e-02,-2.400000e-01,
360,2.200000e-02,-2.000000e-01,
361,1.800000e-02,-3.600000e-01,
362,2.200000e-02,-2.800000e-01,
363,1.600000e-02,-4.400000e-01,
364,2.000000e-02,-4.000000e-01,
365,1.400000e-02,-5.200000e-01,
366,1.800000e-02,-4.800000e-01,
367,1.000000e-02,-6.000000e-01,
368,1.200000e-02,-5.200000e-01,
369,-4.000000e-03,-6.400000e-01,
370,-2.000000e-03,-5.600000e-01,
371,-4.200000e-02,-6.800000e-01,
372,-4.000000e-02,-6.000000e-01,
373,-1.000000e-01,-7.200000e-01,
374,-9.800000e-02,-6.400000e-01,
375,-1.440000e-01,-7.600000e-01,
376,-1.320000e-01,-7.600000e-01,
377,-4.000000e-03,-6.800000e-01,
378,-6.000001e-03,-7.600000e-01,
379,2.000000e-02,-6.800000e-01,
380,1.600000e-02,-6.800000e-01,
381,2.400000e-02,-8.000000e-01,
382,2.200000e-02,-8.000000e-01,
383,2.600000e-02,-6.800000e-01,
384,2.400000e-02,-7.600000e-01,
385,2.800000e-02,-6.800000e-01,
386,2.400000e-02,-7.200000e-01,
387,2.800000e-02,-5.600000e-01,
388,2.800000e-02,-6.000000e-01,
389,2.400000e-02,-4.800000e-01,
390,2.800000e-02,-5.600000e-01,
391,2.400000e-02,-4.000000e-01,
392,2.800000e-02,-4.800000e-01,
393,2.400000e-02,-3.200000e-01,
394,2.800000e-02,-3.600000e-01,
395,2.400000e-02,-2.400000e-01,
396,2.800000e-02,-3.200000e-01,
397,2.400000e-02,-8.000000e-02,
398,2.800000e-02,-1.600000e-01,
399,2.400000e-02,8.000000e-02,
400,2.400000e-02,0.000000e+00,
401,2.800000e-02,2.000000e-01,
402,2.400000e-02,1.200000e-01,
403,2.800000e-02,3.200000e-01,
404,2.400000e-02,2.400000e-01,
405,2.800000e-02,4.400000e-01,
406,2.200000e-02,4.000000e-01,
407,2.800000e-02,5.600000e-01,
408,2.400000e-02,4.800000e-01,
409,2.800000e-02,6.800000e-01,
410,2.600000e-02,6.000000e-01,
411,2.200000e-02,7.600000e-01,
412,2.600000e-02,6.800000e-01,
413,2.200000e-02,8.400000e-01,
414,2.600000e-02,8.000000e-01,
415,2.000000e-02,9.200000e-01,
416,2.400000e-02,8.800000e-01,
417,1.400000e-02,1.000000e+00,
418,1.800000e-02,9.200000e-01,
419,-1.800000e-02,1.040000e+00,
420,-1.400000e-02,1.000000e+00,
421,-1.480000e-01,1.080000e+00,
422,-1.500000e-01,1.000000e+00,
423,-8.800001e-02,1.120000e+00,
424,-8.800001e-02,1.040000e+00,
425,-2.600000e-02,1.160000e+00,
426,-2.800000e-02,1.160000e+00,
427,4.000000e-03,1.080000e+00,
428,2.000000e-03,1.080000e+00,
429,1.400000e-02,1.200000e+00,
430,1.200000e-02,1.200000e+00,
431,2.000000e-02,1.080000e+00,
432,1.600000e-02,1.200000e+00,
433,2.200000e-02,1.080000e+00,
434,1.800000e-02,1.160000e+00,
435,2.200000e-02,1.080000e+00,
436,1.800000e-02,1.120000e+00,
437,2.400000e-02,9.600000e-01,
438,2.000000e-02,1.000000e+00,
439,2.400000e-02,8.800000e-01,
440,2.000000e-02,9.600000e-01,
441,2.400000e-02,8.400000e-01,
442,2.400000e-02,8.800000e-01,
443,2.000000e-02,7.200000e-01,
444,2.400000e-02,8.000000e-01,
445,2.000000e-02,6.400000e-01,
446,2.400000e-02,7.200000e-01,
447,2.000000e-02,4.800000e-01,
448,2.400000e-02,5.600000e-01,
449,2.000000e-02,3.600000e-01,
450,2.400000e-02,4.000000e-01,
451,2.000000e-02,2.000000e-01,
452,2.400000e-02,2.800000e-01,
453,2.000000e-02,1.200000e-01,
454,2.400000e-02,2.000000e-01,
455,2.000000e-02,-4.000000e-02,
456,2.000000e-02,4.000000e-02,
457,2.400000e-02,-1.600000e-01,
458,2.400000e-02,-8.000000e-02,
459,1.800000e-02,-2.400000e-01,
460,2.200000e-02,-2.000000e-01,
461,1.800000e-02,-3.600000e-01,
462,2.200000e-02,-2.800000e-01,
463,1.600000e-02,-4.400000e-01,
464,2.000000e-02,-4.000000e-01,
465,1.400000e-02,-5.600000e-01,
466,1.800000e-02,-4.800000e-01,
467,1.000000e-02,-6.000000e-01,
468,1.200000e-02,-5.200000e-01,
469,-4.000000e-03,-6.400000e-01,
470,-2.000000e-03,-5.600000e-01,
471,-4.200000e-02,-6.800000e-01,
472,-4.000000e-02,-6.000000e-01,
473,-1.000000e-01,-7.200000e-01,
474,-9.800000e-02,-6.400000e-01,
475,-1.440000e-01,-7.600000e-01,
476,-1.320000e-01,-7.600000e-01,
477,-4.000000e-03,-6.800000e-01,
478,-6.000001e-03,-6.800000e-01,
479,2.000000e-02,-8.000000e-01,
480,1.800000e-02,-6.800000e-01,
481,2.400000e-02,-8.000000e-01,
482,2.200000e-02,-7.600000e-01,
483,2.600000e-02,-6.800000e-01,
484,2.400000e-02,-8.000000e-01,
485,2.800000e-02,-6.400000e-01,
486,2.400000e-02,-7.200000e-01,
487,2.800000e-02,-5.600000e-01,
488,2.800000e-02,-6.000000e-01,
489,2.400000e-02,-4.800000e-01,
490,2.800000e-02,-5.600000e-01,
491,2.400000e-02,-4.000000e-01,
492,2.800000e-02,-4.800000e-01,
493,2.400000e-02,-3.200000e-01,
494,2.800000e-02,-4.000000e-01,
495,2.400000e-02,-2.400000e-01,
496,2.800000e-02,-3.200000e-01,
497,2.400000e-02,-8.000000e-02,
498,2.800000e-02,-1.600000e-01,
499,2.400000e-02,4.000000e-02,
500,2.400000e-02,0.000000e+00,
501,2.800000e-02,2.000000e-01,
502,2.400000e-02,1.200000e-01,
503,2.800000e-02,2.800000e-01,
504,2.400000e-02,2.400000e-01,
505,2.800000e-02,4.400000e-01,
506,2.400000e-02,4.000000e-01,
507,2.800000e-02,5.600000e-01,
508,2.400000e-02,4.800000e-01,
509,2.800000e-02,6.400000e-01,
510,2.600000e-02,6.000000e-01,
511,2.200000e-02,7.600000e-01,
512,2.600000e-02,6.800000e-01,
513,2.200000e-02,8.400000e-01,
514,2.600000e-02,7.600000e-01,
515,2.000000e-02,9.600000e-01,
516,2.400000e-02,8.800000e-01,
517,1.600000e-02,1.000000e+00,
518,1.800000e-02,9.200000e-01,
519,-1.600000e-02,1.040000e+00,
520,-1.400000e-02,1.000000e+00,
521,-1.480000e-01,1.080000e+00,
522,-1.500000e-01,1.000000e+00,
523,-8.600000e-02,1.120000e+00,
524,-9.000000e-02,1.040000e+00,
525,-2.600000e-02,1.160000e+00,
526,-3.000000e-02,1.080000e+00,
527,4.000000e-03,1.200000e+00,
528,2.000000e-03,1.200000e+00,
529,1.600000e-02,1.080000e+00,
530,1.200000e-02,1.200000e+00,
531,2.000000e-02,1.080000e+00,
532,1.600000e-02,1.200000e+00,
533,2.200000e-02,1.080000e+00,
534,2.200000e-02,1.200000e+00,
535,1.800000e-02,1.080000e+00,
536,2.000000e-02,1.120000e+00,
537,2.400000e-02,9.600000e-01,
538,2.000000e-02,1.000000e+00,
539,2.400000e-02,8.800000e-01,
540,2.400000e-02,9.600000e-01,
541,2.000000e-02,8.000000e-01,
542,2.400000e-02,8.800000e-01,
543,2.000000e-02,7.200000e-01,
544,2.400000e-02,8.000000e-01,
545,2.000000e-02,6.400000e-01,
546,2.400000e-02,7.200000e-01,
547,2.000000e-02,5.200000e-01,
548,2.400000e-02,5.600000e-01,
549,2.000000e-02,3.600000e-01,
550,2.400000e-02,4.000000e-01,
551,2.000000e-02,2.400000e-01,
552,2.400000e-02,2.800000e-01,
553,2.000000e-02,1.200000e-01,
554,2.000000e-02,1.600000e-01,
555,2.400000e-02,-4.000000e-02,
556,2.000000e-02,4.000000e-02,
557,2.400000e-02,-1.200000e-01,
558,2.400000e-02,-8.000000e-02,
559,1.800000e-02,-2.400000e-01,
560,2.200000e-02,-2.000000e-01,
561,1.800000e-02,-3.600000e-01,
562,2.200000e-02,-2.800000e-01,
563,1.600000e-02,-4.400000e-01,
564,2.000000e-02,-4.000000e-01,
565,1.400000e-02,-5.600000e-01,
566,1.800000e-02,-4.800000e-01,
567,1.000000e-02,-6.000000e-01,
568,1.400000e-02,-5.200000e-01,
569,-4.000000e-03,-6.400000e-01,
570,-2.000000e-03,-5.600000e-01,
571,-4.200000e-02,-6.800000e-01,
572,-4.000000e-02,-6.000000e-01,
573,-1.000000e-01,-7.200000e-01,
574,-9.800000e-02,-6.400000e-01,
575,-1.440000e-01,-7.600000e-01,
576,-1.340000e-01,-7.600000e-01,
577,-4.000000e-03,-6.800000e-01,
578,-6.000001e-03,-7.600000e-01,
579,2.000000e-02,-6.800000e-01,
580,1.600000e-02,-6.800000e-01,
581,2.400000e-02,-8.000000e-01,
582,2.200000e-02,-7.600000e-01,
583,2.600000e-02,-6.800000e-01,
584,2.400000e-02,-7.600000e-01,
585,2.800000e-02,-6.800000e-01,
586,2.400000e-02,-7.200000e-01,
587,2.800000e-02,-5.600000e-01,
588,2.400000e-02,-6.400000e-01,
589,2.800000e-02,-4.800000e-01,
590,2.800000e-02,-5.600000e-01,
591,2.400000e-02,-4.000000e-01,
592,2.800000e-02,-4.800000e-01,
593,2.400000e-02,-3.200000e-01,
594,2.400000e-02,-4.000000e-01,
595,2.800000e-02,-2.400000e-01,
596,2.800000e-02,-3.200000e-01,
597,2.400000e-02,-8.000000e-02,
598,2.400000e-02,-1.600000e-01,
599,2.800000e-02,8.000000e-02,
600,2.400000e-02,0.000000e+00,
601,2.800000e-02,2.000000e-01,
602,2.400000e-02,1.200000e-01,
603,2.800000e-02,3.200000e-01,
604,2.400000e-02,2.400000e-01,
605,2.800000e-02,4.400000e-01,
606,2.800000e-02,4.000000e-01,
607,2.200000e-02,5.600000e-01,
608,2.600000e-02,4.800000e-01,
609,2.200000e-02,6.800000e-01,
610,2.600000e-02,6.000000e-01,
611,2.200000e-02,7.600000e-01,
612,2.600000e-02,6.800000e-01,
613,2.200000e-02,8.400000e-01,
614,2.600000e-02,8.000000e-01,
615,2.000000e-02,9.200000e-01,
616,2.400000e-02,8.800000e-01,
617,1.400000e-02,1.000000e+00,
618,1.800000e-02,9.200000e-01,
619,-1.600000e-02,1.040000e+00,
620,-1.400000e-02,1.080000e+00,
621,-1.460000e-01,9.600000e-01,
622,-1.500000e-01,1.000000e+00,
623,-8.800001e-02,1.120000e+00,
624,-9.000000e-02,1.040000e+00,
625,-2.800000e-02,1.160000e+00,
626,-3.000000e-02,1.160000e+00,
627,4.000000e-03,1.080000e+00,
628,0.000000e+00,1.080000e+00,
629,1.400000e-02,1.200000e+00,
630,1.200000e-02,1.080000e+00,
631,1.800000e-02,1.200000e+00,
632,1.600000e-02,1.200000e+00,
633,2.200000e-02,1.080000e+00,
