d4-1/新建文件1.csv

X,CH1,CH2,Start,Increment,
Sequence,Volt,Volt,-6.980000e-02,1.000000e-04,
0,-8.000000e-03,2.800000e-01,
1,-1.600000e-02,1.600000e-01,
2,-8.000000e-03,2.800000e-01,
3,-1.600000e-02,1.600000e-01,
4,-1.600000e-02,2.000000e-01,
5,-8.000000e-03,8.000000e-02,
6,-8.000000e-03,1.200000e-01,
7,-1.600000e-02,0.000000e+00,
8,-1.600000e-02,8.000000e-02,
9,-8.000000e-03,-4.000000e-02,
10,-1.600000e-02,0.000000e+00,
11,-4.000000e-03,-1.200000e-01,
12,-8.000000e-03,-4.000000e-02,
13,-1.600000e-02,-1.600000e-01,
14,-8.000000e-03,-8.000000e-02,
15,-1.600000e-02,-2.400000e-01,
16,-1.600000e-02,-1.600000e-01,
17,-4.000000e-03,-3.200000e-01,
18,-1.600000e-02,-2.400000e-01,
19,-4.000000e-03,-3.600000e-01,
20,-4.000000e-03,-2.800000e-01,
21,-1.600000e-02,-4.000000e-01,
22,-4.000000e-03,-3.200000e-01,
23,-1.600000e-02,-4.400000e-01,
24,-1.200000e-02,-3.600000e-01,
25,-4.000000e-03,-4.800000e-01,
26,-1.200000e-02,-4.400000e-01,
27,-4.000000e-03,-5.200000e-01,
28,-4.000000e-03,-4.800000e-01,
29,-1.200000e-02,-5.600000e-01,
30,-1.200000e-02,-4.800000e-01,
31,0.000000e+00,-5.600000e-01,
32,0.000000e+00,-5.200000e-01,
33,-1.200000e-02,-6.400000e-01,
34,-8.000000e-03,-5.600000e-01,
35,4.000000e-03,-6.800000e-01,
36,4.000000e-03,-6.000000e-01,
37,-8.000000e-03,-6.800000e-01,
38,-4.000000e-03,-6.400000e-01,
39,8.000000e-03,-7.200000e-01,
40,0.000000e+00,-6.400000e-01,
41,1.600000e-02,-7.200000e-01,
42,8.000000e-03,-7.200000e-01,
43,2.800000e-02,-6.400000e-01,
44,2.000000e-02,-7.200000e-01,
45,4.400000e-02,-6.400000e-01,
46,3.600000e-02,-7.200000e-01,
47,6.800000e-02,-6.400000e-01,
48,6.400000e-02,-7.200000e-01,
49,9.600001e-02,-6.400000e-01,
50,8.800001e-02,-7.200000e-01,
51,1.120000e-01,-6.400000e-01,
52,1.040000e-01,-6.400000e-01,
53,1.160000e-01,-7.600000e-01,
54,1.120000e-01,-6.800000e-01,
55,9.600001e-02,-7.600000e-01,
56,1.040000e-01,-6.800000e-01,
57,8.400001e-02,-7.600000e-01,
58,9.200001e-02,-6.400000e-01,
59,7.200000e-02,-7.600000e-01,
60,8.000001e-02,-7.200000e-01,
61,6.000000e-02,-6.400000e-01,
62,6.800000e-02,-6.400000e-01,
63,4.800000e-02,-7.200000e-01,
64,5.600000e-02,-7.200000e-01,
65,3.600000e-02,-6.000000e-01,
66,4.400000e-02,-6.800000e-01,
67,2.400000e-02,-6.000000e-01,
68,3.200000e-02,-6.800000e-01,
69,1.600000e-02,-5.600000e-01,
70,2.400000e-02,-6.400000e-01,
71,8.000000e-03,-5.600000e-01,
72,1.600000e-02,-5.600000e-01,
73,4.000000e-03,-6.400000e-01,
74,8.000000e-03,-6.400000e-01,
75,0.000000e+00,-5.200000e-01,
76,8.000000e-03,-6.000000e-01,
77,-4.000000e-03,-4.800000e-01,
78,4.000000e-03,-5.600000e-01,
79,-8.000000e-03,-4.000000e-01,
80,-8.000000e-03,-4.800000e-01,
81,4.000000e-03,-3.600000e-01,
82,0.000000e+00,-4.000000e-01,
83,-1.200000e-02,-2.800000e-01,
84,-1.200000e-02,-3.600000e-01,
85,0.000000e+00,-2.400000e-01,
86,-4.000000e-03,-3.200000e-01,
87,-1.200000e-02,-2.000000e-01,
88,-4.000000e-03,-2.400000e-01,
89,-1.200000e-02,-1.200000e-01,
90,-4.000000e-03,-2.000000e-01,
91,-1.200000e-02,-8.000000e-02,
92,-4.000000e-03,-1.600000e-01,
93,-1.200000e-02,-4.000000e-02,
94,-4.000000e-03,-8.000000e-02,
95,-1.600000e-02,4.000000e-02,
96,-4.000000e-03,-4.000000e-02,
97,-1.600000e-02,8.000000e-02,
98,-1.600000e-02,4.000000e-02,
99,-4.000000e-03,1.600000e-01,
100,-1.200000e-02,8.000000e-02,
101,-4.000000e-03,2.400000e-01,
102,-4.000000e-03,1.600000e-01,
103,-1.600000e-02,3.200000e-01,
104,-4.000000e-03,2.400000e-01,
105,-1.600000e-02,4.000000e-01,
106,-4.000000e-03,3.200000e-01,
107,-1.600000e-02,4.400000e-01,
108,-1.200000e-02,3.600000e-01,
109,-4.000000e-03,5.200000e-01,
110,-1.200000e-02,4.400000e-01,
111,-4.000000e-03,5.600000e-01,
112,-4.000000e-03,4.800000e-01,
113,-1.600000e-02,6.000000e-01,
114,-1.200000e-02,5.600000e-01,
115,-4.000000e-03,6.800000e-01,
116,-4.000000e-03,6.400000e-01,
117,-1.200000e-02,7.600000e-01,
118,-1.200000e-02,6.800000e-01,
119,0.000000e+00,8.000000e-01,
120,0.000000e+00,7.600000e-01,
121,-1.200000e-02,8.400000e-01,
122,-8.000000e-03,8.000000e-01,
123,0.000000e+00,9.200000e-01,
124,-8.000000e-03,8.400000e-01,
125,4.000000e-03,9.600000e-01,
126,-8.000000e-03,8.800000e-01,
127,4.000000e-03,1.000000e+00,
128,-4.000000e-03,9.200000e-01,
129,8.000000e-03,1.000000e+00,
130,0.000000e+00,1.040000e+00,
131,1.200000e-02,9.200000e-01,
132,4.000000e-03,9.600000e-01,
133,1.600000e-02,1.080000e+00,
134,8.000000e-03,1.000000e+00,
135,2.400000e-02,1.120000e+00,
136,1.600000e-02,1.040000e+00,
137,3.200000e-02,1.160000e+00,
138,2.400000e-02,1.080000e+00,
139,4.400000e-02,1.200000e+00,
140,3.200000e-02,1.200000e+00,
141,5.600000e-02,1.080000e+00,
142,4.800000e-02,1.200000e+00,
143,6.800000e-02,1.080000e+00,
144,6.000000e-02,1.120000e+00,
145,8.000001e-02,1.200000e+00,
146,7.200000e-02,1.200000e+00,
147,9.200001e-02,1.120000e+00,
148,8.400001e-02,1.200000e+00,
149,1.040000e-01,1.120000e+00,
150,9.200001e-02,1.200000e+00,
151,1.120000e-01,1.120000e+00,
152,1.040000e-01,1.200000e+00,
153,1.120000e-01,1.120000e+00,
154,1.120000e-01,1.200000e+00,
155,8.800001e-02,1.120000e+00,
156,9.600001e-02,1.200000e+00,
157,6.400000e-02,1.120000e+00,
158,6.800000e-02,1.200000e+00,
159,3.600000e-02,1.120000e+00,
160,4.400000e-02,1.200000e+00,
161,2.000000e-02,1.080000e+00,
162,2.400000e-02,1.200000e+00,
163,8.000000e-03,1.080000e+00,
164,1.600000e-02,1.160000e+00,
165,0.000000e+00,1.080000e+00,
166,8.000000e-03,1.160000e+00,
167,-4.000000e-03,1.040000e+00,
168,4.000000e-03,1.120000e+00,
169,-8.000000e-03,1.040000e+00,
170,0.000000e+00,1.120000e+00,
171,-8.000000e-03,1.040000e+00,
172,0.000000e+00,1.080000e+00,
173,-1.200000e-02,1.000000e+00,
174,-4.000000e-03,1.080000e+00,
175,-1.200000e-02,1.000000e+00,
176,-1.200000e-02,1.040000e+00,
177,-4.000000e-03,9.200000e-01,
178,-4.000000e-03,1.000000e+00,
179,-1.600000e-02,8.800000e-01,
180,-4.000000e-03,9.200000e-01,
181,-1.600000e-02,7.600000e-01,
182,-4.000000e-03,8.800000e-01,
183,-1.600000e-02,7.600000e-01,
184,-1.600000e-02,8.000000e-01,
185,-4.000000e-03,6.800000e-01,
186,-8.000000e-03,7.600000e-01,
187,-1.600000e-02,6.400000e-01,
188,-8.000000e-03,7.200000e-01,
189,-1.600000e-02,6.000000e-01,
190,-1.600000e-02,6.400000e-01,
191,-8.000000e-03,5.200000e-01,
192,-1.600000e-02,6.000000e-01,
193,-8.000000e-03,4.400000e-01,
194,-1.600000e-02,5.200000e-01,
195,-8.000000e-03,4.000000e-01,
196,-8.000000e-03,4.800000e-01,
197,-1.600000e-02,3.600000e-01,
198,-1.600000e-02,4.400000e-01,
199,-8.000000e-03,2.800000e-01,
200,-8.000000e-03,3.600000e-01,
201,-2.000000e-02,2.400000e-01,
202,-1.600000e-02,2.800000e-01,
203,-8.000000e-03,1.600000e-01,
204,-8.000000e-03,2.000000e-01,
205,-1.600000e-02,8.000000e-02,
206,-8.000000e-03,1.200000e-01,
207,-1.600000e-02,0.000000e+00,
208,-1.600000e-02,8.000000e-02,
209,-8.000000e-03,-8.000000e-02,
210,-1.600000e-02,0.000000e+00,
211,-8.000000e-03,-8.000000e-02,
212,-1.600000e-02,-4.000000e-02,
213,-8.000000e-03,-1.600000e-01,
214,-1.600000e-02,-8.000000e-02,
215,-4.000000e-03,-2.400000e-01,
216,-8.000000e-03,-1.600000e-01,
217,-1.600000e-02,-3.200000e-01,
218,-1.600000e-02,-2.400000e-01,
219,-4.000000e-03,-3.600000e-01,
220,-1.600000e-02,-2.800000e-01,
221,-4.000000e-03,-4.000000e-01,
222,-1.600000e-02,-3.200000e-01,
223,-4.000000e-03,-4.400000e-01,
224,-4.000000e-03,-3.600000e-01,
225,-1.600000e-02,-5.200000e-01,
226,-4.000000e-03,-4.400000e-01,
227,-1.600000e-02,-5.200000e-01,
228,-4.000000e-03,-4.400000e-01,
229,-1.200000e-02,-5.600000e-01,
230,-1.200000e-02,-4.800000e-01,
231,0.000000e+00,-5.600000e-01,
232,0.000000e+00,-5.200000e-01,
233,-1.200000e-02,-6.400000e-01,
234,-8.000000e-03,-5.600000e-01,
235,4.000000e-03,-6.800000e-01,
236,4.000000e-03,-6.000000e-01,
237,-8.000000e-03,-6.800000e-01,
238,-4.000000e-03,-6.400000e-01,
239,8.000000e-03,-7.200000e-01,
240,0.000000e+00,-6.400000e-01,
241,1.600000e-02,-7.200000e-01,
242,8.000000e-03,-7.200000e-01,
243,2.400000e-02,-6.400000e-01,
244,1.600000e-02,-7.200000e-01,
245,4.400000e-02,-6.400000e-01,
246,3.600000e-02,-7.200000e-01,
247,7.200000e-02,-6.400000e-01,
248,6.400000e-02,-7.200000e-01,
249,9.600001e-02,-6.400000e-01,
250,8.800001e-02,-7.200000e-01,
251,1.120000e-01,-6.400000e-01,
252,1.040000e-01,-6.400000e-01,
253,1.160000e-01,-7.600000e-01,
254,1.120000e-01,-6.800000e-01,
255,9.600001e-02,-7.600000e-01,
256,1.040000e-01,-6.800000e-01,
257,8.400001e-02,-7.600000e-01,
258,9.200001e-02,-7.200000e-01,
259,7.200000e-02,-6.400000e-01,
260,8.000001e-02,-7.200000e-01,
261,6.000000e-02,-6.400000e-01,
262,6.800000e-02,-6.400000e-01,
263,4.800000e-02,-7.200000e-01,
264,5.200000e-02,-7.200000e-01,
265,3.200000e-02,-6.000000e-01,
266,4.000000e-02,-6.800000e-01,
267,2.400000e-02,-6.000000e-01,
268,3.200000e-02,-6.800000e-01,
269,1.200000e-02,-5.600000e-01,
270,2.000000e-02,-6.400000e-01,
271,8.000000e-03,-5.600000e-01,
272,1.600000e-02,-5.600000e-01,
273,0.000000e+00,-6.400000e-01,
274,8.000000e-03,-6.000000e-01,
275,-4.000000e-03,-5.200000e-01,
276,-4.000000e-03,-6.000000e-01,
277,8.000000e-03,-4.800000e-01,
278,4.000000e-03,-5.600000e-01,
279,-8.000000e-03,-4.000000e-01,
280,0.000000e+00,-4.800000e-01,
281,-8.000000e-03,-3.200000e-01,
282,0.000000e+00,-4.000000e-01,
283,-1.200000e-02,-2.800000e-01,
284,0.000000e+00,-3.600000e-01,
285,-1.200000e-02,-2.400000e-01,
286,-1.200000e-02,-3.200000e-01,
287,0.000000e+00,-2.000000e-01,
288,-4.000000e-03,-2.400000e-01,
289,-1.200000e-02,-1.200000e-01,
290,-4.000000e-03,-2.000000e-01,
291,-1.200000e-02,-8.000000e-02,
292,-1.200000e-02,-1.200000e-01,
293,-4.000000e-03,0.000000e+00,
294,-4.000000e-03,-8.000000e-02,
295,-1.200000e-02,4.000000e-02,
296,-4.000000e-03,-4.000000e-02,
297,-1.600000e-02,8.000000e-02,
298,-4.000000e-03,0.000000e+00,
299,-1.600000e-02,1.600000e-01,
300,-4.000000e-03,8.000000e-02,
301,-1.200000e-02,2.400000e-01,
302,-4.000000e-03,1.600000e-01,
303,-1.600000e-02,3.200000e-01,
304,-4.000000e-03,2.400000e-01,
305,-1.600000e-02,4.000000e-01,
306,-4.000000e-03,3.200000e-01,
307,-1.600000e-02,4.400000e-01,
308,-1.200000e-02,4.000000e-01,
309,-4.000000e-03,5.200000e-01,
310,-1.200000e-02,4.400000e-01,
311,-4.000000e-03,5.600000e-01,
312,-1.200000e-02,4.800000e-01,
313,-4.000000e-03,6.000000e-01,
314,-4.000000e-03,5.200000e-01,
315,-1.200000e-02,6.800000e-01,
316,-4.000000e-03,6.400000e-01,
317,-1.200000e-02,7.600000e-01,
318,-1.200000e-02,6.800000e-01,
319,0.000000e+00,8.000000e-01,
320,0.000000e+00,7.600000e-01,
321,-1.200000e-02,8.800000e-01,
322,-1.200000e-02,8.000000e-01,
323,0.000000e+00,9.200000e-01,
324,-8.000000e-03,8.400000e-01,
325,0.000000e+00,9.600000e-01,
326,4.000000e-03,8.800000e-01,
327,-8.000000e-03,1.000000e+00,
328,-4.000000e-03,9.200000e-01,
329,8.000000e-03,1.000000e+00,
330,0.000000e+00,9.200000e-01,
331,1.200000e-02,1.040000e+00,
332,4.000000e-03,9.600000e-01,
333,1.600000e-02,1.080000e+00,
334,8.000000e-03,1.000000e+00,
335,2.400000e-02,1.120000e+00,
336,1.600000e-02,1.040000e+00,
337,3.200000e-02,1.160000e+00,
338,2.400000e-02,1.080000e+00,
339,4.400000e-02,1.200000e+00,
340,3.600000e-02,1.200000e+00,
341,5.600000e-02,1.080000e+00,
342,4.800000e-02,1.200000e+00,
343,6.800000e-02,1.080000e+00,
344,6.000000e-02,1.200000e+00,
345,8.000001e-02,1.080000e+00,
346,7.200000e-02,1.120000e+00,
347,9.200001e-02,1.200000e+00,
348,8.400001e-02,1.200000e+00,
349,1.040000e-01,1.120000e+00,
350,9.600001e-02,1.200000e+00,
351,1.120000e-01,1.120000e+00,
352,1.040000e-01,1.200000e+00,
353,1.120000e-01,1.120000e+00,
354,1.080000e-01,1.120000e+00,
355,8.800001e-02,1.240000e+00,
356,9.200001e-02,1.200000e+00,
357,6.000000e-02,1.120000e+00,
358,6.800000e-02,1.200000e+00,
359,3.600000e-02,1.120000e+00,
360,4.400000e-02,1.120000e+00,
361,1.600000e-02,1.200000e+00,
362,2.400000e-02,1.200000e+00,
363,8.000000e-03,1.080000e+00,
364,1.600000e-02,1.080000e+00,
365,0.000000e+00,1.200000e+00,
366,8.000000e-03,1.160000e+00,
367,-4.000000e-03,1.040000e+00,
368,4.000000e-03,1.120000e+00,
369,-8.000000e-03,1.040000e+00,
370,0.000000e+00,1.120000e+00,
371,-8.000000e-03,1.040000e+00,
372,0.000000e+00,1.120000e+00,
373,-1.200000e-02,1.000000e+00,
374,-4.000000e-03,1.080000e+00,
375,-1.200000e-02,1.000000e+00,
376,-4.000000e-03,1.080000e+00,
377,-1.200000e-02,9.200000e-01,
378,-4.000000e-03,1.000000e+00,
379,-1.600000e-02,8.400000e-01,
380,-4.000000e-03,9.200000e-01,
381,-1.600000e-02,7.600000e-01,
382,-1.600000e-02,8.400000e-01,
383,-4.000000e-03,7.200000e-01,
384,-1.600000e-02,8.000000e-01,
385,-4.000000e-03,6.800000e-01,
386,-8.000000e-03,7.600000e-01,
387,-1.600000e-02,6.400000e-01,
388,-8.000000e-03,7.200000e-01,
389,-1.600000e-02,5.600000e-01,
390,-8.000000e-03,6.400000e-01,
391,-1.600000e-02,5.200000e-01,
392,-1.600000e-02,6.000000e-01,
393,-8.000000e-03,4.400000e-01,
394,-8.000000e-03,5.200000e-01,
395,-1.600000e-02,4.000000e-01,
396,-1.600000e-02,4.800000e-01,
397,-8.000000e-03,3.600000e-01,
398,-8.000000e-03,4.000000e-01,
399,-1.600000e-02,2.800000e-01,
400,-1.600000e-02,3.600000e-01,
401,-8.000000e-03,2.400000e-01,
402,-8.000000e-03,2.800000e-01,
403,-1.600000e-02,1.200000e-01,
404,-1.600000e-02,2.000000e-01,
405,-8.000000e-03,8.000000e-02,
406,-8.000000e-03,1.200000e-01,
407,-2.000000e-02,0.000000e+00,
408,-8.000000e-03,8.000000e-02,
409,-1.600000e-02,-8.000000e-02,
410,-1.600000e-02,0.000000e+00,
411,-4.000000e-03,-1.200000e-01,
412,-8.000000e-03,-4.000000e-02,
413,-1.600000e-02,-1.600000e-01,
414,-8.000000e-03,-8.000000e-02,
415,-1.600000e-02,-2.400000e-01,
416,-1.600000e-02,-1.600000e-01,
417,-4.000000e-03,-3.200000e-01,
418,-1.600000e-02,-2.400000e-01,
419,-4.000000e-03,-3.600000e-01,
420,-1.600000e-02,-2.800000e-01,
421,-4.000000e-03,-4.000000e-01,
422,-1.600000e-02,-3.200000e-01,
423,-4.000000e-03,-4.400000e-01,
424,-1.600000e-02,-4.000000e-01,
425,-4.000000e-03,-4.800000e-01,
426,-4.000000e-03,-4.400000e-01,
427,-1.600000e-02,-5.200000e-01,
428,-1.200000e-02,-4.400000e-01,
429,0.000000e+00,-5.600000e-01,
430,-1.200000e-02,-4.800000e-01,
431,0.000000e+00,-6.000000e-01,
432,-8.000000e-03,-5.200000e-01,
433,0.000000e+00,-6.400000e-01,
434,-8.000000e-03,-5.600000e-01,
435,4.000000e-03,-6.800000e-01,
436,4.000000e-03,-6.000000e-01,
437,-8.000000e-03,-6.800000e-01,
438,-4.000000e-03,-6.400000e-01,
439,8.000000e-03,-7.200000e-01,
440,0.000000e+00,-6.400000e-01,
441,1.600000e-02,-7.200000e-01,
442,8.000000e-03,-7.200000e-01,
443,2.800000e-02,-6.400000e-01,
444,2.000000e-02,-7.200000e-01,
445,4.800000e-02,-6.400000e-01,
446,4.000000e-02,-7.200000e-01,
447,7.200000e-02,-6.400000e-01,
448,6.800000e-02,-7.200000e-01,
449,1.000000e-01,-6.400000e-01,
450,9.200001e-02,-6.400000e-01,
451,1.120000e-01,-7.600000e-01,
452,1.040000e-01,-7.600000e-01,
453,1.160000e-01,-6.400000e-01,
454,1.120000e-01,-6.800000e-01,
455,9.600001e-02,-7.600000e-01,
456,1.040000e-01,-6.800000e-01,
457,8.400001e-02,-7.600000e-01,
458,9.200001e-02,-7.200000e-01,
459,6.800000e-02,-6.400000e-01,
460,7.600001e-02,-7.200000e-01,
461,6.000000e-02,-6.400000e-01,
462,6.400000e-02,-6.400000e-01,
463,4.400000e-02,-7.200000e-01,
464,5.200000e-02,-6.800000e-01,
465,3.200000e-02,-6.000000e-01,
466,4.000000e-02,-6.800000e-01,
467,2.000000e-02,-6.000000e-01,
468,3.200000e-02,-6.800000e-01,
469,1.200000e-02,-5.600000e-01,
470,2.000000e-02,-6.400000e-01,
471,8.000000e-03,-5.600000e-01,
472,1.600000e-02,-5.600000e-01,
473,0.000000e+00,-6.400000e-01,
474,8.000000e-03,-6.400000e-01,
475,-4.000000e-03,-5.200000e-01,
476,-4.000000e-03,-6.000000e-01,
477,8.000000e-03,-4.800000e-01,
478,4.000000e-03,-5.200000e-01,
479,-8.000000e-03,-3.600000e-01,
480,0.000000e+00,-4.400000e-01,
481,-8.000000e-03,-3.200000e-01,
482,0.000000e+00,-4.000000e-01,
483,-1.200000e-02,-2.800000e-01,
484,0.000000e+00,-3.600000e-01,
485,-1.200000e-02,-2.400000e-01,
486,-4.000000e-03,-2.800000e-01,
487,-1.200000e-02,-1.600000e-01,
488,-4.000000e-03,-2.400000e-01,
489,-1.200000e-02,-1.200000e-01,
490,-1.200000e-02,-2.000000e-01,
491,-4.000000e-03,-8.000000e-02,
492,-1.200000e-02,-1.200000e-01,
493,-4.000000e-03,0.000000e+00,
494,-4.000000e-03,-8.000000e-02,
495,-1.600000e-02,4.000000e-02,
496,-1.200000e-02,-4.000000e-02,
497,-4.000000e-03,8.000000e-02,
498,-1.200000e-02,4.000000e-02,
499,-4.000000e-03,1.600000e-01,
500,-4.000000e-03,8.000000e-02,
501,-1.600000e-02,2.400000e-01,
502,-4.000000e-03,1.600000e-01,
503,-1.600000e-02,3.200000e-01,
504,-1.200000e-02,2.400000e-01,
505,-4.000000e-03,4.000000e-01,
506,-1.200000e-02,3.200000e-01,
507,-4.000000e-03,4.800000e-01,
508,-1.200000e-02,4.000000e-01,
509,-4.000000e-03,5.200000e-01,
510,-4.000000e-03,4.400000e-01,
511,-1.200000e-02,5.600000e-01,
512,-4.000000e-03,4.800000e-01,
513,-1.200000e-02,6.400000e-01,
514,-4.000000e-03,5.600000e-01,
515,-1.200000e-02,7.200000e-01,
516,-4.000000e-03,6.400000e-01,
517,-1.200000e-02,7.600000e-01,
518,-1.200000e-02,6.800000e-01,
519,0.000000e+00,8.000000e-01,
520,0.000000e+00,7.600000e-01,
521,-1.200000e-02,8.800000e-01,
522,-8.000000e-03,8.000000e-01,
523,0.000000e+00,9.200000e-01,
524,-8.000000e-03,8.400000e-01,
525,4.000000e-03,9.600000e-01,
526,-8.000000e-03,8.800000e-01,
527,4.000000e-03,1.000000e+00,
528,-4.000000e-03,9.200000e-01,
529,8.000000e-03,1.000000e+00,
530,0.000000e+00,9.200000e-01,
531,1.200000e-02,1.040000e+00,
532,4.000000e-03,9.600000e-01,
533,1.600000e-02,1.080000e+00,
534,8.000000e-03,1.000000e+00,
535,2.400000e-02,1.120000e+00,
536,1.600000e-02,1.080000e+00,
537,3.200000e-02,1.160000e+00,
538,2.400000e-02,1.080000e+00,
539,4.400000e-02,1.200000e+00,
540,3.600000e-02,1.120000e+00,
541,5.600000e-02,1.200000e+00,
542,4.800000e-02,1.120000e+00,
543,6.800000e-02,1.200000e+00,
544,6.000000e-02,1.120000e+00,
545,8.000001e-02,1.200000e+00,
546,7.200000e-02,1.120000e+00,
547,9.200001e-02,1.200000e+00,
548,8.400001e-02,1.200000e+00,
549,1.040000e-01,1.120000e+00,
550,9.600001e-02,1.200000e+00,
551,1.120000e-01,1.120000e+00,
552,1.120000e-01,1.200000e+00,
553,1.000000e-01,1.120000e+00,
554,1.080000e-01,1.120000e+00,
555,8.400001e-02,1.240000e+00,
556,9.200001e-02,1.200000e+00,
557,6.000000e-02,1.120000e+00,
558,6.400000e-02,1.200000e+00,
559,3.200000e-02,1.120000e+00,
560,4.000000e-02,1.120000e+00,
561,1.600000e-02,1.200000e+00,
562,2.400000e-02,1.200000e+00,
563,4.000000e-03,1.080000e+00,
564,1.200000e-02,1.160000e+00,
565,0.000000e+00,1.080000e+00,
566,8.000000e-03,1.160000e+00,
567,-4.000000e-03,1.040000e+00,
568,4.000000e-03,1.120000e+00,
569,-8.000000e-03,1.040000e+00,
570,0.000000e+00,1.040000e+00,
571,-8.000000e-03,1.120000e+00,
572,0.000000e+00,1.080000e+00,
573,-1.200000e-02,1.000000e+00,
574,-4.000000e-03,1.080000e+00,
575,-1.200000e-02,1.000000e+00,
576,-4.000000e-03,1.040000e+00,
577,-1.600000e-02,9.200000e-01,
578,-4.000000e-03,1.000000e+00,
579,-1.600000e-02,8.000000e-01,
580,-4.000000e-03,9.200000e-01,
581,-1.600000e-02,8.000000e-01,
582,-8.000000e-03,8.400000e-01,
583,-1.600000e-02,7.200000e-01,
584,-8.000000e-03,8.000000e-01,
585,-1.600000e-02,6.800000e-01,
586,-1.600000e-02,7.600000e-01,
587,-4.000000e-03,6.400000e-01,
588,-1.600000e-02,7.200000e-01,
589,-4.000000e-03,5.600000e-01,
590,-8.000000e-03,6.400000e-01,
591,-1.600000e-02,5.200000e-01,
592,-8.000000e-03,5.600000e-01,
593,-1.600000e-02,4.400000e-01,
594,-8.000000e-03,5.200000e-01,
595,-1.600000e-02,4.000000e-01,
596,-1.600000e-02,4.800000e-01,
597,-8.000000e-03,3.600000e-01,
598,-8.000000e-03,4.000000e-01,
599,-2.000000e-02,2.800000e-01,
600,-1.600000e-02,3.600000e-01,
601,-8.000000e-03,2.400000e-01,
602,-1.600000e-02,2.800000e-01,
603,-8.000000e-03,1.200000e-01,
604,-8.000000e-03,2.000000e-01,
605,-1.600000e-02,8.000000e-02,
606,-8.000000e-03,1.200000e-01,
607,-1.600000e-02,0.000000e+00,
608,-1.600000e-02,4.000000e-02,
609,-4.000000e-03,-8.000000e-02,
610,-1.600000e-02,0.000000e+00,
611,-4.000000e-03,-1.200000e-01,
612,-1.600000e-02,-4.000000e-02,
613,-4.000000e-03,-1.600000e-01,
614,-8.000000e-03,-1.200000e-01,
615,-1.600000e-02,-2.400000e-01,
616,-1.600000e-02,-2.000000e-01,
617,-4.000000e-03,-3.200000e-01,
618,-1.600000e-02,-2.400000e-01,
619,-4.000000e-03,-3.600000e-01,
620,-1.600000e-02,-2.800000e-01,
621,-4.000000e-03,-4.000000e-01,
622,-1.600000e-02,-3.600000e-01,
623,-4.000000e-03,-4.800000e-01,
624,-4.000000e-03,-4.000000e-01,
625,-1.600000e-02,-5.200000e-01,
